{
    "providers": {
        "awscloudformation": {
            "AuthRoleName": "roomf110android-20190121003429-authRole",
            "UnauthRoleArn": "arn:aws:iam::663598223631:role/roomf110android-20190121003429-unauthRole",
            "AuthRoleArn": "arn:aws:iam::663598223631:role/roomf110android-20190121003429-authRole",
            "Region": "eu-west-1",
            "DeploymentBucketName": "roomf110android-20190121003429-deployment",
            "UnauthRoleName": "roomf110android-20190121003429-unauthRole",
            "StackName": "roomf110android-20190121003429",
            "StackId": "arn:aws:cloudformation:eu-west-1:663598223631:stack/roomf110android-20190121003429/eed6c890-1d0b-11e9-b4ff-0abc187d3320"
        }
    }
}